{
    "key": "group_5b96815c73bdb",
    "title": "Typ av k\u00e4llor",
    "fields": [
        {
            "key": "field_5ba258448631f",
            "label": "Publikation-L\u00e4nk",
            "name": "publikation-lank",
            "type": "text",
            "instructions": "",
            "required": 0,
            "conditional_logic": 0,
            "wrapper": {
                "width": "",
                "class": "",
                "id": ""
            },
            "default_value": "",
            "placeholder": "",
            "prepend": "",
            "append": "",
            "maxlength": "",
            "readonly": 0,
            "disabled": 0
        },
        {
            "key": "field_5ba2330f595ad",
            "label": "Publikation-referens",
            "name": "publikation-referens",
            "type": "text",
            "instructions": "Vem som \u00e4r referensen",
            "required": 0,
            "conditional_logic": 0,
            "wrapper": {
                "width": "",
                "class": "",
                "id": ""
            },
            "default_value": "",
            "placeholder": "",
            "prepend": "",
            "append": "",
            "maxlength": "",
            "readonly": 0,
            "disabled": 0
        },
        {
            "key": "field_5b9b629113a53",
            "label": "Kategori",
            "name": "kategori",
            "type": "post_object",
            "instructions": "Vilken kategori tillh\u00f6r publikationen",
            "required": 0,
            "conditional_logic": 0,
            "wrapper": {
                "width": "",
                "class": "",
                "id": ""
            },
            "post_type": [
                "kategorier"
            ],
            "taxonomy": [],
            "allow_null": 0,
            "multiple": 1,
            "return_format": "id",
            "ui": 1
        }
    ],
    "location": [
        [
            {
                "param": "post_type",
                "operator": "==",
                "value": "rapporter"
            }
        ],
        [
            {
                "param": "post_type",
                "operator": "==",
                "value": "forskningar"
            }
        ],
        [
            {
                "param": "post_type",
                "operator": "==",
                "value": "studentarbeten"
            }
        ],
        [
            {
                "param": "post_type",
                "operator": "==",
                "value": "projekten"
            }
        ]
    ],
    "menu_order": 0,
    "position": "normal",
    "style": "default",
    "label_placement": "top",
    "instruction_placement": "label",
    "hide_on_screen": "",
    "active": 1,
    "description": "",
    "modified": 1537366103
}