{
    "key": "group_5b9fc1c38dc30",
    "title": "Standardmall - bild",
    "fields": [
        {
            "key": "field_5b9fc218d0208",
            "label": "page-img",
            "name": "page-img",
            "type": "image",
            "instructions": "Bild i \"sidebar\" f\u00f6r page.php",
            "required": 0,
            "conditional_logic": 0,
            "wrapper": {
                "width": "",
                "class": "",
                "id": ""
            },
            "return_format": "url",
            "preview_size": "medium",
            "library": "all",
            "min_width": "",
            "min_height": "",
            "min_size": "",
            "max_width": "",
            "max_height": "",
            "max_size": "",
            "mime_types": ""
        }
    ],
    "location": [
        [
            {
                "param": "page_template",
                "operator": "==",
                "value": "default"
            }
        ]
    ],
    "menu_order": 0,
    "position": "normal",
    "style": "default",
    "label_placement": "top",
    "instruction_placement": "label",
    "hide_on_screen": "",
    "active": 1,
    "description": "",
    "modified": 1537340318
}